{
  "SECRET_KEY": "-+!@x9wipq$&r*fz)+eh6iy*1df4_d+irw)&(x#6tta%z2vwil",
  "DJANGO_DATABASE_NAME": "kimolos",
  "DJANGO_DATABASE_USER": "nick",
  "DJANGO_DATABASE_PWD": "m3rc@l!",
  "ADMIN_URL": "kimolos-admin-ns",
  "GOOGLE_MAPS_API_KEY": "AIzaSyA2bqToFXHUaThuPfXrJxKYq9Dc5r4-u6g",
  "ADMIN_EMAIL": "web@pidesign.gr",
  "DEFAULT_FROM_EMAIL": "contact@rantevou-kimolos.gr",
  "DEFAULT_TO_EMAIL": "stelitsa777@gmail.com",
  "SERVER_EMAIL": "error@rantevou-kimolos.gr",
  "MAILJET_API_KEY": "3d578310a9b737d97eecddd5130507a4",
  "MAILJET_SECRET_KEY": "9b993ddaf85e8f169ff27d07b2676081"
}
